{
 "Resources": {
  "NetworkingVPC47331CE2": {
   "Type": "AWS::EC2::VPC",
   "Properties": {
    "CidrBlock": "172.50.0.0/16",
    "EnableDnsHostnames": true,
    "EnableDnsSupport": true,
    "InstanceTenancy": "default",
    "Tags": [
     {
      "Key": "Name",
      "Value": "SwaggerUI/Stateful/Networking/VPC"
     },
     {
      "Key": "Owner",
      "Value": "swagger"
     }
    ]
   },
   "Metadata": {
    "aws:cdk:path": "SwaggerUI/Stateful/Networking/VPC/Resource"
   }
  },
  "NetworkingVPCPublicSubnet1Subnet456768EF": {
   "Type": "AWS::EC2::Subnet",
   "Properties": {
    "VpcId": {
     "Ref": "NetworkingVPC47331CE2"
    },
    "AvailabilityZone": "us-east-1a",
    "CidrBlock": "172.50.0.0/24",
    "MapPublicIpOnLaunch": true,
    "Tags": [
     {
      "Key": "aws-cdk:subnet-name",
      "Value": "Public"
     },
     {
      "Key": "aws-cdk:subnet-type",
      "Value": "Public"
     },
     {
      "Key": "Name",
      "Value": "SwaggerUI/Stateful/Networking/VPC/PublicSubnet1"
     },
     {
      "Key": "Owner",
      "Value": "swagger"
     }
    ]
   },
   "Metadata": {
    "aws:cdk:path": "SwaggerUI/Stateful/Networking/VPC/PublicSubnet1/Subnet"
   }
  },
  "NetworkingVPCPublicSubnet1RouteTableFB7DB6BF": {
   "Type": "AWS::EC2::RouteTable",
   "Properties": {
    "VpcId": {
     "Ref": "NetworkingVPC47331CE2"
    },
    "Tags": [
     {
      "Key": "Name",
      "Value": "SwaggerUI/Stateful/Networking/VPC/PublicSubnet1"
     },
     {
      "Key": "Owner",
      "Value": "swagger"
     }
    ]
   },
   "Metadata": {
    "aws:cdk:path": "SwaggerUI/Stateful/Networking/VPC/PublicSubnet1/RouteTable"
   }
  },
  "NetworkingVPCPublicSubnet1RouteTableAssociation998A5E8B": {
   "Type": "AWS::EC2::SubnetRouteTableAssociation",
   "Properties": {
    "RouteTableId": {
     "Ref": "NetworkingVPCPublicSubnet1RouteTableFB7DB6BF"
    },
    "SubnetId": {
     "Ref": "NetworkingVPCPublicSubnet1Subnet456768EF"
    }
   },
   "Metadata": {
    "aws:cdk:path": "SwaggerUI/Stateful/Networking/VPC/PublicSubnet1/RouteTableAssociation"
   }
  },
  "NetworkingVPCPublicSubnet1DefaultRoute87E8EA0A": {
   "Type": "AWS::EC2::Route",
   "Properties": {
    "RouteTableId": {
     "Ref": "NetworkingVPCPublicSubnet1RouteTableFB7DB6BF"
    },
    "DestinationCidrBlock": "0.0.0.0/0",
    "GatewayId": {
     "Ref": "NetworkingVPCIGW820460A7"
    }
   },
   "DependsOn": [
    "NetworkingVPCVPCGW3AF12CB4"
   ],
   "Metadata": {
    "aws:cdk:path": "SwaggerUI/Stateful/Networking/VPC/PublicSubnet1/DefaultRoute"
   }
  },
  "NetworkingVPCPublicSubnet1EIP13C5F113": {
   "Type": "AWS::EC2::EIP",
   "Properties": {
    "Domain": "vpc",
    "Tags": [
     {
      "Key": "Name",
      "Value": "SwaggerUI/Stateful/Networking/VPC/PublicSubnet1"
     },
     {
      "Key": "Owner",
      "Value": "swagger"
     }
    ]
   },
   "Metadata": {
    "aws:cdk:path": "SwaggerUI/Stateful/Networking/VPC/PublicSubnet1/EIP"
   }
  },
  "NetworkingVPCPublicSubnet1NATGateway6E1AC04D": {
   "Type": "AWS::EC2::NatGateway",
   "Properties": {
    "SubnetId": {
     "Ref": "NetworkingVPCPublicSubnet1Subnet456768EF"
    },
    "AllocationId": {
     "Fn::GetAtt": [
      "NetworkingVPCPublicSubnet1EIP13C5F113",
      "AllocationId"
     ]
    },
    "Tags": [
     {
      "Key": "Name",
      "Value": "SwaggerUI/Stateful/Networking/VPC/PublicSubnet1"
     },
     {
      "Key": "Owner",
      "Value": "swagger"
     }
    ]
   },
   "DependsOn": [
    "NetworkingVPCPublicSubnet1DefaultRoute87E8EA0A",
    "NetworkingVPCPublicSubnet1RouteTableAssociation998A5E8B"
   ],
   "Metadata": {
    "aws:cdk:path": "SwaggerUI/Stateful/Networking/VPC/PublicSubnet1/NATGateway"
   }
  },
  "NetworkingVPCPublicSubnet2Subnet06EE199A": {
   "Type": "AWS::EC2::Subnet",
   "Properties": {
    "VpcId": {
     "Ref": "NetworkingVPC47331CE2"
    },
    "AvailabilityZone": "us-east-1b",
    "CidrBlock": "172.50.1.0/24",
    "MapPublicIpOnLaunch": true,
    "Tags": [
     {
      "Key": "aws-cdk:subnet-name",
      "Value": "Public"
     },
     {
      "Key": "aws-cdk:subnet-type",
      "Value": "Public"
     },
     {
      "Key": "Name",
      "Value": "SwaggerUI/Stateful/Networking/VPC/PublicSubnet2"
     },
     {
      "Key": "Owner",
      "Value": "swagger"
     }
    ]
   },
   "Metadata": {
    "aws:cdk:path": "SwaggerUI/Stateful/Networking/VPC/PublicSubnet2/Subnet"
   }
  },
  "NetworkingVPCPublicSubnet2RouteTable11EAC724": {
   "Type": "AWS::EC2::RouteTable",
   "Properties": {
    "VpcId": {
     "Ref": "NetworkingVPC47331CE2"
    },
    "Tags": [
     {
      "Key": "Name",
      "Value": "SwaggerUI/Stateful/Networking/VPC/PublicSubnet2"
     },
     {
      "Key": "Owner",
      "Value": "swagger"
     }
    ]
   },
   "Metadata": {
    "aws:cdk:path": "SwaggerUI/Stateful/Networking/VPC/PublicSubnet2/RouteTable"
   }
  },
  "NetworkingVPCPublicSubnet2RouteTableAssociation9794F550": {
   "Type": "AWS::EC2::SubnetRouteTableAssociation",
   "Properties": {
    "RouteTableId": {
     "Ref": "NetworkingVPCPublicSubnet2RouteTable11EAC724"
    },
    "SubnetId": {
     "Ref": "NetworkingVPCPublicSubnet2Subnet06EE199A"
    }
   },
   "Metadata": {
    "aws:cdk:path": "SwaggerUI/Stateful/Networking/VPC/PublicSubnet2/RouteTableAssociation"
   }
  },
  "NetworkingVPCPublicSubnet2DefaultRouteFC2DBB44": {
   "Type": "AWS::EC2::Route",
   "Properties": {
    "RouteTableId": {
     "Ref": "NetworkingVPCPublicSubnet2RouteTable11EAC724"
    },
    "DestinationCidrBlock": "0.0.0.0/0",
    "GatewayId": {
     "Ref": "NetworkingVPCIGW820460A7"
    }
   },
   "DependsOn": [
    "NetworkingVPCVPCGW3AF12CB4"
   ],
   "Metadata": {
    "aws:cdk:path": "SwaggerUI/Stateful/Networking/VPC/PublicSubnet2/DefaultRoute"
   }
  },
  "NetworkingVPCPublicSubnet2EIPCCDBE401": {
   "Type": "AWS::EC2::EIP",
   "Properties": {
    "Domain": "vpc",
    "Tags": [
     {
      "Key": "Name",
      "Value": "SwaggerUI/Stateful/Networking/VPC/PublicSubnet2"
     },
     {
      "Key": "Owner",
      "Value": "swagger"
     }
    ]
   },
   "Metadata": {
    "aws:cdk:path": "SwaggerUI/Stateful/Networking/VPC/PublicSubnet2/EIP"
   }
  },
  "NetworkingVPCPublicSubnet2NATGatewayEC7BE373": {
   "Type": "AWS::EC2::NatGateway",
   "Properties": {
    "SubnetId": {
     "Ref": "NetworkingVPCPublicSubnet2Subnet06EE199A"
    },
    "AllocationId": {
     "Fn::GetAtt": [
      "NetworkingVPCPublicSubnet2EIPCCDBE401",
      "AllocationId"
     ]
    },
    "Tags": [
     {
      "Key": "Name",
      "Value": "SwaggerUI/Stateful/Networking/VPC/PublicSubnet2"
     },
     {
      "Key": "Owner",
      "Value": "swagger"
     }
    ]
   },
   "DependsOn": [
    "NetworkingVPCPublicSubnet2DefaultRouteFC2DBB44",
    "NetworkingVPCPublicSubnet2RouteTableAssociation9794F550"
   ],
   "Metadata": {
    "aws:cdk:path": "SwaggerUI/Stateful/Networking/VPC/PublicSubnet2/NATGateway"
   }
  },
  "NetworkingVPCPrivateSubnet1SubnetA4560E1F": {
   "Type": "AWS::EC2::Subnet",
   "Properties": {
    "VpcId": {
     "Ref": "NetworkingVPC47331CE2"
    },
    "AvailabilityZone": "us-east-1a",
    "CidrBlock": "172.50.2.0/24",
    "MapPublicIpOnLaunch": false,
    "Tags": [
     {
      "Key": "aws-cdk:subnet-name",
      "Value": "Private"
     },
     {
      "Key": "aws-cdk:subnet-type",
      "Value": "Private"
     },
     {
      "Key": "Name",
      "Value": "SwaggerUI/Stateful/Networking/VPC/PrivateSubnet1"
     },
     {
      "Key": "Owner",
      "Value": "swagger"
     }
    ]
   },
   "Metadata": {
    "aws:cdk:path": "SwaggerUI/Stateful/Networking/VPC/PrivateSubnet1/Subnet"
   }
  },
  "NetworkingVPCPrivateSubnet1RouteTableBD91F27D": {
   "Type": "AWS::EC2::RouteTable",
   "Properties": {
    "VpcId": {
     "Ref": "NetworkingVPC47331CE2"
    },
    "Tags": [
     {
      "Key": "Name",
      "Value": "SwaggerUI/Stateful/Networking/VPC/PrivateSubnet1"
     },
     {
      "Key": "Owner",
      "Value": "swagger"
     }
    ]
   },
   "Metadata": {
    "aws:cdk:path": "SwaggerUI/Stateful/Networking/VPC/PrivateSubnet1/RouteTable"
   }
  },
  "NetworkingVPCPrivateSubnet1RouteTableAssociation2E7F0CAC": {
   "Type": "AWS::EC2::SubnetRouteTableAssociation",
   "Properties": {
    "RouteTableId": {
     "Ref": "NetworkingVPCPrivateSubnet1RouteTableBD91F27D"
    },
    "SubnetId": {
     "Ref": "NetworkingVPCPrivateSubnet1SubnetA4560E1F"
    }
   },
   "Metadata": {
    "aws:cdk:path": "SwaggerUI/Stateful/Networking/VPC/PrivateSubnet1/RouteTableAssociation"
   }
  },
  "NetworkingVPCPrivateSubnet1DefaultRoute3B75A0EB": {
   "Type": "AWS::EC2::Route",
   "Properties": {
    "RouteTableId": {
     "Ref": "NetworkingVPCPrivateSubnet1RouteTableBD91F27D"
    },
    "DestinationCidrBlock": "0.0.0.0/0",
    "NatGatewayId": {
     "Ref": "NetworkingVPCPublicSubnet1NATGateway6E1AC04D"
    }
   },
   "Metadata": {
    "aws:cdk:path": "SwaggerUI/Stateful/Networking/VPC/PrivateSubnet1/DefaultRoute"
   }
  },
  "NetworkingVPCPrivateSubnet2Subnet388EEB72": {
   "Type": "AWS::EC2::Subnet",
   "Properties": {
    "VpcId": {
     "Ref": "NetworkingVPC47331CE2"
    },
    "AvailabilityZone": "us-east-1b",
    "CidrBlock": "172.50.3.0/24",
    "MapPublicIpOnLaunch": false,
    "Tags": [
     {
      "Key": "aws-cdk:subnet-name",
      "Value": "Private"
     },
     {
      "Key": "aws-cdk:subnet-type",
      "Value": "Private"
     },
     {
      "Key": "Name",
      "Value": "SwaggerUI/Stateful/Networking/VPC/PrivateSubnet2"
     },
     {
      "Key": "Owner",
      "Value": "swagger"
     }
    ]
   },
   "Metadata": {
    "aws:cdk:path": "SwaggerUI/Stateful/Networking/VPC/PrivateSubnet2/Subnet"
   }
  },
  "NetworkingVPCPrivateSubnet2RouteTable3CDBE855": {
   "Type": "AWS::EC2::RouteTable",
   "Properties": {
    "VpcId": {
     "Ref": "NetworkingVPC47331CE2"
    },
    "Tags": [
     {
      "Key": "Name",
      "Value": "SwaggerUI/Stateful/Networking/VPC/PrivateSubnet2"
     },
     {
      "Key": "Owner",
      "Value": "swagger"
     }
    ]
   },
   "Metadata": {
    "aws:cdk:path": "SwaggerUI/Stateful/Networking/VPC/PrivateSubnet2/RouteTable"
   }
  },
  "NetworkingVPCPrivateSubnet2RouteTableAssociation166DD089": {
   "Type": "AWS::EC2::SubnetRouteTableAssociation",
   "Properties": {
    "RouteTableId": {
     "Ref": "NetworkingVPCPrivateSubnet2RouteTable3CDBE855"
    },
    "SubnetId": {
     "Ref": "NetworkingVPCPrivateSubnet2Subnet388EEB72"
    }
   },
   "Metadata": {
    "aws:cdk:path": "SwaggerUI/Stateful/Networking/VPC/PrivateSubnet2/RouteTableAssociation"
   }
  },
  "NetworkingVPCPrivateSubnet2DefaultRoute958EA54D": {
   "Type": "AWS::EC2::Route",
   "Properties": {
    "RouteTableId": {
     "Ref": "NetworkingVPCPrivateSubnet2RouteTable3CDBE855"
    },
    "DestinationCidrBlock": "0.0.0.0/0",
    "NatGatewayId": {
     "Ref": "NetworkingVPCPublicSubnet2NATGatewayEC7BE373"
    }
   },
   "Metadata": {
    "aws:cdk:path": "SwaggerUI/Stateful/Networking/VPC/PrivateSubnet2/DefaultRoute"
   }
  },
  "NetworkingVPCIGW820460A7": {
   "Type": "AWS::EC2::InternetGateway",
   "Properties": {
    "Tags": [
     {
      "Key": "Name",
      "Value": "SwaggerUI/Stateful/Networking/VPC"
     },
     {
      "Key": "Owner",
      "Value": "swagger"
     }
    ]
   },
   "Metadata": {
    "aws:cdk:path": "SwaggerUI/Stateful/Networking/VPC/IGW"
   }
  },
  "NetworkingVPCVPCGW3AF12CB4": {
   "Type": "AWS::EC2::VPCGatewayAttachment",
   "Properties": {
    "VpcId": {
     "Ref": "NetworkingVPC47331CE2"
    },
    "InternetGatewayId": {
     "Ref": "NetworkingVPCIGW820460A7"
    }
   },
   "Metadata": {
    "aws:cdk:path": "SwaggerUI/Stateful/Networking/VPC/VPCGW"
   }
  },
  "NetworkingSwaggerUISG96F8CF33": {
   "Type": "AWS::EC2::SecurityGroup",
   "Properties": {
    "GroupDescription": "Security Group for Swagger UI Lambda",
    "GroupName": "SwaggerUISG",
    "SecurityGroupEgress": [
     {
      "CidrIp": "0.0.0.0/0",
      "Description": "Allow all outbound traffic by default",
      "IpProtocol": "-1"
     }
    ],
    "Tags": [
     {
      "Key": "Owner",
      "Value": "swagger"
     }
    ],
    "VpcId": {
     "Ref": "NetworkingVPC47331CE2"
    }
   },
   "Metadata": {
    "aws:cdk:path": "SwaggerUI/Stateful/Networking/SwaggerUISG/Resource"
   }
  },
  "S3APIDocsCB10F954": {
   "Type": "AWS::S3::Bucket",
   "Properties": {
    "CorsConfiguration": {
     "CorsRules": [
      {
       "AllowedHeaders": [
        "Authorization",
        "Content-Type"
       ],
       "AllowedMethods": [
        "GET"
       ],
       "AllowedOrigins": [
        "*"
       ],
       "MaxAge": 3000
      }
     ]
    },
    "Tags": [
     {
      "Key": "Owner",
      "Value": "swagger"
     }
    ]
   },
   "UpdateReplacePolicy": "Retain",
   "DeletionPolicy": "Retain",
   "Metadata": {
    "aws:cdk:path": "SwaggerUI/Stateful/S3/APIDocs/Resource"
   }
  },
  "CDKMetadata": {
   "Type": "AWS::CDK::Metadata",
   "Properties": {
    "Analytics": "v2:deflate64:H4sIAAAAAAAA/02PTW/CMAyGfwv3NONDmrgyNCEuELWI65R6njAtSZXYQ1XV/76WsHUnP370ynq91OuFns/sPWbwWWU1lbor2EKlBvXRISx1d25Abb/c2WyVkbImKKR0yKObKPfCeLJljZOf3CZGD2SZvPsLj/C+N+M4WN5ZxrttlQn0PeB0eO8Yw8C/gdTkuW146Hq5oWNVIEggbnfBS/Po8F/0Kq509yZQpauJ+l7lGL0EeLQ5CjeSvnnaXpmWL969rPRirl9n10iUBXFMN9R5mj/2cLiFQwEAAA=="
   },
   "Metadata": {
    "aws:cdk:path": "SwaggerUI/Stateful/CDKMetadata/Default"
   }
  }
 },
 "Outputs": {
  "S3BucketName099EDA80": {
   "Value": {
    "Ref": "S3APIDocsCB10F954"
   }
  },
  "ExportsOutputRefNetworkingVPCPrivateSubnet1SubnetA4560E1F1EC76AC4": {
   "Value": {
    "Ref": "NetworkingVPCPrivateSubnet1SubnetA4560E1F"
   },
   "Export": {
    "Name": "SwaggerUI-Stateful:ExportsOutputRefNetworkingVPCPrivateSubnet1SubnetA4560E1F1EC76AC4"
   }
  },
  "ExportsOutputRefNetworkingVPCPrivateSubnet2Subnet388EEB72AB01EAC9": {
   "Value": {
    "Ref": "NetworkingVPCPrivateSubnet2Subnet388EEB72"
   },
   "Export": {
    "Name": "SwaggerUI-Stateful:ExportsOutputRefNetworkingVPCPrivateSubnet2Subnet388EEB72AB01EAC9"
   }
  },
  "ExportsOutputFnGetAttNetworkingSwaggerUISG96F8CF33GroupIdFEF076D7": {
   "Value": {
    "Fn::GetAtt": [
     "NetworkingSwaggerUISG96F8CF33",
     "GroupId"
    ]
   },
   "Export": {
    "Name": "SwaggerUI-Stateful:ExportsOutputFnGetAttNetworkingSwaggerUISG96F8CF33GroupIdFEF076D7"
   }
  },
  "ExportsOutputFnGetAttS3APIDocsCB10F954ArnA7FEBE62": {
   "Value": {
    "Fn::GetAtt": [
     "S3APIDocsCB10F954",
     "Arn"
    ]
   },
   "Export": {
    "Name": "SwaggerUI-Stateful:ExportsOutputFnGetAttS3APIDocsCB10F954ArnA7FEBE62"
   }
  }
 },
 "Parameters": {
  "BootstrapVersion": {
   "Type": "AWS::SSM::Parameter::Value<String>",
   "Default": "/cdk-bootstrap/hnb659fds/version",
   "Description": "Version of the CDK Bootstrap resources in this environment, automatically retrieved from SSM Parameter Store. [cdk:skip]"
  }
 },
 "Rules": {
  "CheckBootstrapVersion": {
   "Assertions": [
    {
     "Assert": {
      "Fn::Not": [
       {
        "Fn::Contains": [
         [
          "1",
          "2",
          "3",
          "4",
          "5"
         ],
         {
          "Ref": "BootstrapVersion"
         }
        ]
       }
      ]
     },
     "AssertDescription": "CDK bootstrap stack version 6 required. Please run 'cdk bootstrap' with a recent version of the CDK CLI."
    }
   ]
  }
 }
}